<?xml version="1.0" encoding="UTF-8"?>
<!DOCTYPE svg PUBLIC "-//W3C//DTD SVG 1.1//EN" "http://www.w3.org/Graphics/SVG/1.1/DTD/svg11.dtd">
<!-- Creator: CorelDRAW X7 -->
<svg xmlns="http://www.w3.org/2000/svg" xml:space="preserve" width="6.66039in" height="1.57461in" version="1.1" style="shape-rendering:geometricPrecision; text-rendering:geometricPrecision; image-rendering:optimizeQuality; fill-rule:evenodd; clip-rule:evenodd"
viewBox="0 0 6660 1575"
 xmlns:xlink="http://www.w3.org/1999/xlink">
 <defs>
  <style type="text/css">
   <![CDATA[
    .fil1 {fill:#FEFEFE}
    .fil2 {fill:#FEFEFE}
    .fil0 {fill:#25D366}
   ]]>
  </style>
 </defs>
 <g id="Layer_x0020_1">
  <metadata id="CorelCorpID_0Corel-Layer"/>
  <g id="_757714800">
   <path class="fil0" d="M335 0l1533 0 2924 0 1533 0c184,0 335,151 335,335l0 904c0,185 -151,336 -335,336l-1533 0 -2924 0 -1533 0c-184,0 -335,-151 -335,-336l0 -904c0,-184 151,-335 335,-335z"/>
   <path class="fil1" d="M988 292c-264,0 -478,213 -478,477 0,131 69,248 69,248l-83 254 262 -83c0,0 97,59 230,59 263,0 477,-214 477,-478 0,-264 -214,-477 -477,-477zm-374 871l-5 2 1 -2 1 -3 1 -3 1 -3 1 -3 1 -3 1 -4 1 -3 1 -3 1 -3 1 -3 2 -4 1 -3 1 -3 1 -3 1 -3 1 -4 1 -3 1 -3 1 -3 1 -3 1 -3 1 -4 1 -3 1 -3 1 -3 2 -3 1 -4 1 -3 1 -3 1 -3 1 -3 1 -4 1 -3 1 -3 1 -3 1 -3 1 -3 1 -4 1 -3 1 -3 2 -3 1 -3 1 -4 1 -3 1 -3 1 -3 0 0c0,0 -1,-1 -2,-3 -1,-1 -1,-2 -2,-4 -1,-1 -2,-2 -2,-3 -1,-1 -2,-2 -2,-3 -1,-1 -2,-2 -2,-3 -1,-1 -2,-2 -2,-3 -1,-1 -1,-2 -2,-3 -1,-2 -1,-3 -2,-4 -1,-1 -1,-2 -2,-3 0,-1 -1,-2 -2,-3 0,-1 -1,-2 -1,-3 -1,-1 -2,-2 -2,-3 -1,-1 -1,-3 -2,-4 0,-1 -1,-2 -2,-3 0,-1 -1,-2 -1,-3 -1,-1 -1,-2 -2,-3 0,-1 -1,-2 -1,-3 -1,-1 -2,-2 -2,-4 -1,-1 -1,-2 -2,-3 0,-1 -1,-2 -1,-3 -1,-1 -1,-2 -2,-3 0,-1 -1,-2 -1,-3 -1,-1 -1,-2 -1,-3 -1,-2 -1,-3 -2,-4 0,-1 -1,-2 -1,-3 -1,-1 -1,-2 -2,-3 0,-1 -1,-2 -1,-3 0,-1 -1,-2 -1,-3 -1,-1 -1,-3 -2,-4 0,-1 0,-2 -1,-3 0,-1 -1,-2 -1,-3 0,-1 -1,-2 -1,-3 -1,-1 -1,-2 -1,-3 -1,-1 -1,-2 -2,-4 0,-1 0,-2 -1,-3 0,-1 -1,-2 -1,-3 0,-1 -1,-2 -1,-3 0,-1 -1,-2 -1,-3 0,-1 -1,-2 -1,-3 0,-2 -1,-3 -1,-4 0,-1 -1,-2 -1,-3 0,-1 -1,-2 -1,-3 0,-1 -1,-2 -1,-3 0,-1 -1,-2 -1,-3 0,-1 0,-3 -1,-4 0,-1 0,-2 -1,-3 0,-1 0,-2 0,-3 -1,-1 -1,-2 -1,-3 0,-1 -1,-2 -1,-3 0,-1 0,-2 -1,-4 0,-1 0,-2 0,-3 -1,-1 -1,-2 -1,-3 0,-1 -1,-2 -1,-3 0,-1 0,-2 0,-3 -1,-1 -1,-2 -1,-3 0,-2 0,-3 -1,-4 0,-1 0,-2 0,-3 0,-1 -1,-2 -1,-3 0,-1 0,-2 0,-3 0,-1 -1,-2 -1,-3 0,-1 0,-3 0,-4 0,-1 0,-2 -1,-3 0,-1 0,-2 0,-3 0,-1 0,-2 0,-3 0,-1 -1,-2 -1,-3 0,-1 0,-2 0,-4 0,-1 0,-2 0,-3 0,-1 0,-2 -1,-3 0,-1 0,-2 0,-3 0,-1 0,-2 0,-3 0,-1 0,-2 0,-3 0,-2 0,-3 0,-4 0,-1 0,-2 0,-3 0,-1 0,-2 0,-3 -1,-1 -1,-2 -1,-3 0,-1 0,-2 0,-3l0 0c0,-1 0,-3 0,-4 1,-1 1,-2 1,-3 0,-1 0,-2 0,-3 0,-1 0,-2 0,-3 0,-1 0,-2 0,-3 0,-1 0,-2 0,-4 0,-1 0,-2 0,-3 0,-1 0,-2 0,-3 0,-1 0,-2 0,-3 1,-1 1,-2 1,-3 0,-1 0,-2 0,-3 0,-2 0,-3 0,-4 0,-1 0,-2 1,-3 0,-1 0,-2 0,-3 0,-1 0,-2 0,-3 0,-1 0,-2 1,-3 0,-1 0,-3 0,-4 0,-1 0,-2 0,-3 1,-1 1,-2 1,-3 0,-1 0,-2 0,-3 1,-1 1,-2 1,-3 0,-1 0,-2 0,-4 1,-1 1,-2 1,-3 0,-1 0,-2 1,-3 0,-1 0,-2 0,-3 0,-1 1,-2 1,-3 0,-1 0,-2 1,-3 0,-2 0,-3 0,-4 1,-1 1,-2 1,-3 0,-1 0,-2 1,-3 0,-1 0,-2 1,-3 0,-1 0,-2 0,-3 1,-1 1,-3 1,-4 0,-1 1,-2 1,-3 0,-1 1,-2 1,-3 0,-1 1,-2 1,-3 0,-1 0,-2 1,-3 0,-1 0,-2 1,-4 0,-1 0,-2 1,-3 0,-1 0,-2 1,-3 0,-1 0,-2 1,-3 0,-1 1,-2 1,-3 0,-1 1,-2 1,-3 0,-2 1,-3 1,-4 1,-1 1,-2 1,-3 1,-1 1,-2 2,-3 0,-1 0,-2 1,-3 0,-1 1,-2 1,-3 1,-1 1,-3 1,-4 1,-1 1,-2 2,-3 0,-1 1,-2 1,-3 1,-1 1,-2 2,-3 0,-1 0,-2 1,-3 0,-1 1,-2 1,-4 1,-1 1,-2 2,-3 0,-1 1,-2 1,-3 1,-1 2,-2 2,-3 1,-1 1,-2 2,-3 0,-1 1,-2 1,-3 1,-2 1,-3 2,-4 1,-1 1,-2 2,-3 0,-1 1,-2 1,-3 1,-1 2,-2 2,-3 1,-1 1,-2 2,-3 1,-1 1,-3 2,-4 1,-1 1,-2 2,-3 0,-1 1,-2 2,-3 0,-1 1,-2 2,-3 0,-1 1,-2 2,-3 0,-1 1,-2 2,-4 1,-1 1,-2 2,-3 1,-1 1,-2 2,-3 1,-1 2,-2 2,-3 1,-1 2,-2 3,-3 0,-1 1,-2 2,-3 1,-2 1,-3 2,-4 1,-1 2,-2 3,-3 0,-1 1,-2 2,-3 1,-1 2,-2 2,-3 1,-1 2,-2 3,-3 1,-1 2,-3 3,-4 0,-1 1,-2 2,-3 1,-1 2,-2 3,-3 1,-1 2,-2 3,-3 1,-1 1,-2 2,-3 1,-1 2,-2 3,-4 1,-1 2,-2 3,-3 1,-1 2,-2 3,-3 1,-1 2,-2 3,-3 1,-1 2,-2 3,-3 1,-1 2,-2 4,-3 1,-2 2,-3 3,-4 1,-1 2,-2 3,-3 1,-1 2,-2 4,-3 1,-1 2,-2 3,-3 1,-1 2,-2 4,-3 1,-1 2,-3 3,-4 1,-1 3,-2 4,-3 1,-1 3,-2 4,-3 1,-1 2,-2 4,-3 1,-1 2,-2 4,-3 1,-1 3,-2 4,-4 1,-1 3,-2 4,-3 2,-1 3,-2 5,-3 1,-1 3,-2 4,-3 2,-1 3,-2 5,-3 1,-1 3,-2 4,-3 2,-2 4,-3 5,-4 2,-1 4,-2 5,-3 2,-1 4,-2 6,-3 2,-1 3,-2 5,-3 2,-1 4,-2 6,-3 2,-1 4,-3 6,-4 2,-1 4,-2 6,-3 2,-1 4,-2 6,-3 2,-1 5,-2 7,-3 2,-1 4,-2 7,-3 2,-1 5,-2 7,-4 3,-1 5,-2 8,-3 3,-1 5,-2 8,-3 3,-1 6,-2 9,-3 3,-1 6,-2 10,-3 3,-1 7,-2 10,-3 4,-2 8,-3 12,-4 4,-1 9,-2 13,-3 6,-1 11,-2 16,-3 7,-1 14,-2 21,-3 17,-2 34,-3 51,-3 18,0 35,1 52,3 7,1 14,2 21,3 5,1 10,2 16,3 4,1 9,2 13,3 4,1 8,2 12,4 3,1 7,2 10,3 3,1 7,2 10,3 3,1 6,2 9,3 2,1 5,2 8,3 3,1 5,2 8,3 2,2 5,3 7,4 2,1 5,2 7,3 2,1 5,2 7,3 2,1 4,2 6,3 2,1 4,2 6,3 2,1 4,3 6,4 2,1 4,2 6,3 2,1 3,2 5,3 2,1 4,2 5,3 2,1 4,2 5,3 2,1 4,2 5,4 2,1 4,2 5,3 2,1 3,2 5,3 1,1 3,2 4,3 2,1 3,2 5,3 1,1 3,2 4,3 1,2 3,3 4,4 1,1 3,2 4,3 1,1 3,2 4,3 1,1 3,2 4,3 1,1 2,2 4,3 1,1 2,3 3,4 1,1 3,2 4,3 1,1 2,2 3,3 1,1 3,2 4,3 1,1 2,2 3,3 1,1 2,2 3,4 1,1 2,2 4,3 1,1 2,2 3,3 1,1 2,2 3,3 1,1 2,2 3,3 1,1 2,2 3,3 1,2 1,3 2,4 1,1 2,2 3,3 1,1 2,2 3,3 1,1 2,2 3,3 1,1 1,2 2,3 1,1 2,3 3,4 1,1 2,2 2,3 1,1 2,2 3,3 1,1 2,2 2,3 1,1 2,2 3,3 1,1 1,2 2,4 1,1 2,2 2,3 1,1 2,2 3,3 0,1 1,2 2,3 0,1 1,2 2,3 1,1 1,2 2,3 1,2 1,3 2,4 1,1 1,2 2,3 1,1 1,2 2,3 1,1 1,2 2,3 1,1 1,2 2,3 1,1 1,3 2,4 0,1 1,2 2,3 0,1 1,2 1,3 1,1 2,2 2,3 1,1 1,2 2,3 0,1 1,2 2,4 0,1 1,2 1,3 1,1 1,2 2,3 0,1 1,2 1,3 1,1 1,2 2,3 0,1 1,2 1,3 1,2 1,3 2,4 0,1 1,2 1,3 1,1 1,2 2,3 0,1 1,2 1,3 1,1 1,2 1,3 1,1 1,3 2,4 0,1 1,2 1,3 0,1 1,2 1,3 1,1 1,2 1,3 1,1 1,2 2,3 0,1 0,2 1,4 0,1 1,2 1,3 0,1 1,2 1,3 0,1 1,2 1,3 0,1 1,2 1,3 0,1 1,2 1,3 0,2 1,3 1,4 0,1 1,2 1,3 0,1 1,2 1,3 0,1 1,2 1,3 0,1 0,2 1,3 0,1 0,3 1,4 0,1 0,2 0,3 1,1 1,2 1,3 0,1 1,2 1,3 0,1 0,2 1,3 0,1 0,2 0,4 1,1 1,2 1,3 0,1 0,2 1,3 0,1 0,2 0,3 0,1 1,2 1,3 0,1 0,2 0,3 1,2 1,3 1,4 0,1 0,2 0,3 1,1 1,2 1,3 0,1 0,2 0,3 1,1 1,2 1,3 0,1 0,3 0,4 0,1 0,2 1,3 0,1 0,2 0,3 0,1 0,2 0,3 0,1 1,2 1,3 0,1 0,2 0,4 0,1 0,2 0,3 0,1 0,2 0,3 0,1 1,2 1,3 0,1 0,2 0,3 0,1 0,2 0,3 0,2 0,3 0,4 0,1 0,2 0,3 0,1 0,2 0,3 0,1 0,2 0,3 0,1 0,2 0,3 0,1 0,2 0,2l0 2 0 1c0,0 0,1 0,2 0,1 0,2 0,3 0,1 0,2 0,3 0,1 0,2 0,3 0,1 0,2 0,4 0,1 0,2 0,3 0,1 0,2 0,3 0,1 0,2 0,3 0,1 -1,2 -1,3 0,1 0,2 0,3 0,2 0,3 0,4 0,1 0,2 0,3 0,1 -1,2 -1,3 0,1 0,2 0,3 0,1 0,2 0,3 -1,1 -1,3 -1,4 0,1 0,2 0,3 0,1 0,2 -1,3 0,1 0,2 0,3 0,1 0,2 -1,3 0,1 0,2 0,4 0,1 0,2 -1,3 0,1 0,2 0,3 0,1 -1,2 -1,3 0,1 0,2 0,3 -1,1 -1,2 -1,3 0,2 0,3 -1,4 0,1 0,2 0,3 -1,1 -1,2 -1,3 0,1 -1,2 -1,3 0,1 0,2 -1,3 0,1 0,3 0,4 -1,1 -1,2 -1,3 -1,1 -1,2 -1,3 0,1 -1,2 -1,3 0,1 -1,2 -1,3 0,1 -1,2 -1,4 0,1 -1,2 -1,3 0,1 -1,2 -1,3 0,1 -1,2 -1,3 0,1 -1,2 -1,3 0,1 -1,2 -1,3 0,2 -1,3 -1,4 -1,1 -1,2 -1,3 -1,1 -1,2 -2,3 0,1 0,2 -1,3 0,1 -1,2 -1,3 0,1 -1,3 -1,4 -1,1 -1,2 -2,3 0,1 0,2 -1,3 0,1 -1,2 -1,3 -1,1 -1,2 -2,3 0,1 -1,2 -1,4 -1,1 -1,2 -2,3 0,1 -1,2 -1,3 -1,1 -1,2 -2,3 0,1 -1,2 -1,3 -1,1 -1,2 -2,3 0,2 -1,3 -1,4 -1,1 -2,2 -2,3 -1,1 -1,2 -2,3 0,1 -1,2 -2,3 0,1 -1,2 -1,3 -1,1 -2,3 -2,4 -1,1 -1,2 -2,3 -1,1 -1,2 -2,3 -1,1 -1,2 -2,3 -1,1 -1,2 -2,3 -1,1 -1,2 -2,4 -1,1 -1,2 -2,3 -1,1 -1,2 -2,3 -1,1 -2,2 -2,3 -1,1 -2,2 -2,3 -1,1 -2,2 -3,3 0,2 -1,3 -2,4 -1,1 -1,2 -2,3 -1,1 -2,2 -3,3 0,1 -1,2 -2,3 -1,1 -2,2 -3,3 0,1 -1,3 -2,4 -1,1 -2,2 -3,3 -1,1 -1,2 -2,3 -1,1 -2,2 -3,3 -1,1 -2,2 -3,3 -1,1 -2,2 -3,4 -1,1 -1,2 -2,3 -1,1 -2,2 -3,3 -1,1 -2,2 -3,3 -1,1 -2,2 -3,3 -1,1 -2,2 -3,3 -2,2 -3,3 -4,4 -1,1 -2,2 -3,3 -1,1 -2,2 -3,3 -1,1 -3,2 -4,3 -1,1 -2,2 -3,3 -1,1 -3,3 -4,4 -1,1 -2,2 -3,3 -2,1 -3,2 -4,3 -1,1 -3,2 -4,3 -1,1 -3,2 -4,3 -1,1 -3,2 -4,4 -1,1 -3,2 -4,3 -2,1 -3,2 -4,3 -2,1 -3,2 -5,3 -1,1 -3,2 -4,3 -2,1 -3,2 -5,3 -1,2 -3,3 -5,4 -1,1 -3,2 -5,3 -1,1 -3,2 -5,3 -1,1 -3,2 -5,3 -2,1 -3,2 -5,3 -2,1 -4,3 -6,4 -2,1 -4,2 -6,3 -2,1 -4,2 -6,3 -2,1 -4,2 -6,3 -2,1 -5,2 -7,3 -2,1 -5,2 -7,4 -2,1 -5,2 -7,3 -3,1 -5,2 -8,3 -3,1 -6,2 -8,3 -3,1 -6,2 -9,3 -3,1 -7,2 -10,3 -3,2 -7,3 -10,4 -4,1 -8,2 -12,3 -4,1 -9,2 -14,3 -5,1 -10,2 -15,3 -7,1 -14,2 -21,3 -17,2 -34,4 -52,4 -16,0 -32,-2 -47,-4 -7,-1 -14,-2 -20,-3 -6,-1 -11,-2 -16,-3 -5,-1 -9,-2 -13,-3 -4,-1 -8,-2 -12,-3 -4,-1 -7,-2 -11,-4 -3,-1 -6,-2 -9,-3 -4,-1 -7,-2 -10,-3 -2,-1 -5,-2 -8,-3 -3,-1 -6,-2 -8,-3 -3,-1 -5,-2 -8,-3 -2,-2 -5,-3 -7,-4 -3,-1 -5,-2 -7,-3 -3,-1 -5,-2 -7,-3 -2,-1 -4,-2 -7,-3 -2,-1 -4,-2 -6,-3 -2,-2 -4,-3 -6,-4 -2,-1 -4,-2 -6,-3 -2,-1 -3,-2 -5,-3 -2,-1 -4,-2 -5,-3 -3,-2 -5,-3 -6,-3 0,-1 0,-1 0,-1l-2 1 -10 3 -10 3 -9 3 -10 3 -10 4 -10 3 -10 3 -9 3 -10 3 -10 4 -10 3 -9 3 -10 3 -10 3 -10 3z"/>
   <path class="fil2" d="M2104 696l-87 0 -83 -224c2,22 5,42 6,58 2,17 2,37 2,60l0 106 -60 0 0 -289 85 0 85 224c-6,-38 -9,-73 -9,-107l0 -117 61 0 0 289zm240 -115c0,9 -1,17 -2,24l-137 0c3,18 8,31 16,39 9,7 20,11 35,11 9,0 17,-1 26,-5 8,-3 17,-8 27,-14l27 36c-26,21 -55,31 -86,31 -36,0 -64,-10 -83,-32 -19,-21 -29,-49 -29,-85 0,-22 4,-42 12,-60 8,-18 20,-32 36,-43 15,-10 34,-15 56,-15 32,0 57,10 75,30 18,20 27,47 27,83zm-65 -19c0,-34 -12,-51 -36,-51 -11,0 -20,5 -26,13 -6,8 -10,22 -12,41l74 0 0 -3zm289 19c0,9 0,17 -1,24l-137 0c2,18 7,31 15,39 9,7 20,11 35,11 9,0 18,-1 26,-5 8,-3 17,-8 27,-14l27 36c-26,21 -55,31 -86,31 -36,0 -64,-10 -83,-32 -19,-21 -28,-49 -28,-85 0,-22 4,-42 12,-60 8,-18 19,-32 35,-43 16,-10 34,-15 56,-15 32,0 57,10 75,30 18,20 27,47 27,83zm-65 -19c0,-34 -12,-51 -35,-51 -12,0 -21,5 -27,13 -6,8 -10,22 -11,41l73 0 0 -3zm295 -175l0 309 -59 0 -3 -26c-16,22 -37,33 -63,33 -28,0 -48,-10 -63,-32 -14,-21 -21,-50 -21,-86 0,-23 4,-43 11,-61 8,-17 18,-31 32,-41 14,-10 29,-15 47,-15 21,0 39,7 53,21l0 -109 66 7zm-105 268c16,0 28,-9 39,-25l0 -96c-6,-6 -11,-11 -16,-14 -6,-3 -12,-4 -19,-4 -12,0 -22,5 -29,17 -7,11 -11,29 -11,52 0,26 3,44 10,54 6,11 15,16 26,16zm319 -248l0 289 -69 0 0 -289 69 0zm176 61c19,0 34,6 45,17 11,12 16,28 16,49l0 162 -66 0 0 -150c0,-12 -1,-19 -5,-24 -3,-4 -8,-6 -15,-6 -14,0 -26,10 -39,29l0 151 -66 0 0 -221 58 0 5 26c9,-11 19,-19 30,-25 11,-6 23,-8 37,-8zm206 -39c-9,0 -16,2 -20,6 -4,5 -6,12 -6,23l0 17 52 0 -7 46 -45 0 0 175 -66 0 0 -175 -33 0 0 -46 33 0 0 -20c0,-22 7,-40 22,-54 14,-14 35,-21 62,-21 22,0 43,4 61,14l-18 43c-11,-6 -23,-8 -35,-8zm133 39c34,0 61,10 80,31 19,20 29,49 29,87 0,23 -5,44 -13,61 -9,18 -22,32 -38,42 -16,9 -35,14 -58,14 -33,0 -60,-10 -79,-31 -19,-21 -29,-50 -29,-87 0,-23 4,-44 13,-62 9,-17 21,-31 38,-41 16,-9 35,-14 57,-14zm0 48c-13,0 -23,6 -30,17 -6,11 -10,29 -10,52 0,24 4,42 10,53 7,11 17,17 30,17 14,0 24,-6 30,-17 7,-11 10,-29 10,-52 0,-25 -3,-42 -9,-53 -7,-11 -17,-17 -31,-17zm262 -47c8,0 15,0 22,2l-10 64c-9,-2 -15,-3 -20,-3 -13,0 -23,5 -30,14 -7,9 -12,22 -16,40l0 110 -66 0 0 -221 58 0 5 43c5,-16 13,-28 23,-36 10,-9 21,-13 34,-13zm286 -1c17,0 31,6 42,17 11,12 16,29 16,49l0 162 -66 0 0 -150c0,-20 -6,-30 -19,-30 -7,0 -13,2 -18,7 -5,5 -10,12 -15,22l0 151 -66 0 0 -150c0,-20 -7,-30 -19,-30 -7,0 -13,2 -18,7 -6,5 -11,12 -16,22l0 151 -66 0 0 -221 58 0 4 26c9,-12 19,-20 29,-25 10,-6 22,-8 36,-8 12,0 23,3 32,9 9,6 16,15 20,26 9,-12 18,-21 29,-27 11,-5 23,-8 37,-8zm277 164c0,8 2,14 4,18 2,4 6,7 11,9l-13 43c-14,-1 -25,-4 -34,-9 -8,-5 -15,-13 -20,-23 -14,22 -36,33 -66,33 -22,0 -40,-6 -53,-19 -13,-13 -19,-30 -19,-50 0,-24 9,-43 26,-55 18,-13 44,-20 77,-20l23 0 0 -9c0,-13 -3,-22 -8,-27 -6,-5 -16,-7 -30,-7 -7,0 -16,1 -26,3 -10,2 -21,5 -32,8l-15 -43c14,-5 29,-9 43,-12 15,-3 28,-4 41,-4 31,0 55,6 69,19 15,13 22,33 22,59l0 86zm-99 24c15,0 27,-7 35,-21l0 -39 -16 0c-15,0 -27,2 -34,8 -7,5 -11,13 -11,24 0,9 2,16 7,21 5,5 11,7 19,7zm285 30c-8,5 -17,9 -28,13 -11,3 -21,4 -32,4 -48,0 -73,-27 -73,-80l0 -102 -31 0 0 -46 31 0 0 -48 66 -8 0 56 51 0 -7 46 -44 0 0 101c0,11 2,18 5,22 4,5 9,7 16,7 8,0 16,-2 24,-7l22 42zm82 -211l0 221 -66 0 0 -221 66 0zm-33 -117c11,0 21,4 28,11 7,7 11,16 11,27 0,10 -4,19 -11,26 -7,8 -17,11 -28,11 -12,0 -21,-3 -28,-11 -7,-7 -11,-16 -11,-26 0,-11 4,-20 11,-27 7,-7 16,-11 28,-11zm175 110c34,0 60,10 79,31 20,20 29,49 29,87 0,23 -4,44 -13,61 -9,18 -21,32 -37,42 -17,9 -36,14 -58,14 -34,0 -60,-10 -80,-31 -19,-21 -29,-50 -29,-87 0,-23 5,-44 14,-62 8,-17 21,-31 37,-41 16,-9 36,-14 58,-14zm0 48c-14,0 -24,6 -30,17 -7,11 -10,29 -10,52 0,24 3,42 10,53 6,11 16,17 30,17 13,0 23,-6 30,-17 6,-11 10,-29 10,-52 0,-25 -3,-42 -10,-53 -7,-11 -17,-17 -30,-17zm271 -48c19,0 34,6 45,17 11,12 16,28 16,49l0 162 -65 0 0 -150c0,-12 -2,-19 -6,-24 -3,-4 -8,-6 -15,-6 -14,0 -26,10 -39,29l0 151 -65 0 0 -221 57 0 5 26c9,-11 19,-19 30,-25 11,-6 23,-8 37,-8zm170 -68c20,0 36,3 50,10 14,6 24,14 31,25 7,10 10,22 10,35 0,11 -2,21 -6,29 -4,8 -8,15 -14,20 -6,5 -13,10 -22,17 -11,8 -19,14 -25,20 -5,6 -8,14 -8,23l0 11 -60 0 0 -13c0,-13 2,-24 6,-33 4,-9 9,-16 15,-22 6,-5 13,-10 21,-16 9,-6 15,-11 19,-15 4,-4 6,-9 6,-15 0,-8 -3,-14 -8,-18 -5,-4 -12,-6 -22,-6 -17,0 -33,8 -48,25l-42 -32c25,-30 57,-45 97,-45zm-13 228c11,0 19,3 27,11 7,7 11,16 11,26 0,11 -4,20 -11,27 -8,7 -16,11 -27,11 -10,0 -19,-4 -26,-11 -8,-7 -11,-16 -11,-27 0,-10 3,-19 11,-26 7,-8 16,-11 26,-11zm-3253 255l0 227 108 0 -6 42 -153 0 0 -269 51 0zm297 161c0,3 0,9 -1,20l-129 0c2,20 7,35 16,43 8,9 20,13 35,13 9,0 17,-2 25,-5 8,-3 17,-7 26,-13l20 28c-22,18 -48,28 -76,28 -31,0 -55,-10 -72,-29 -17,-19 -26,-45 -26,-79 0,-21 4,-39 11,-56 8,-17 18,-30 32,-39 13,-10 30,-15 49,-15 28,0 51,10 67,28 15,18 23,44 23,76zm-49 -14c0,-36 -13,-54 -40,-54 -12,0 -22,4 -29,13 -7,9 -11,23 -12,43l81 0 0 -2zm206 112c-7,5 -15,9 -24,12 -9,2 -18,4 -28,4 -20,-1 -35,-6 -46,-18 -10,-11 -15,-28 -15,-50l0 -108 -33 0 0 -36 33 0 0 -45 49 -6 0 51 48 0 -5 36 -43 0 0 107c0,10 2,18 6,22 3,4 9,7 16,7 8,0 16,-3 24,-8l18 32zm33 -286c8,0 15,3 21,8 6,6 8,12 8,20 0,5 0,9 -2,13 -1,5 -3,11 -7,18l-25 53 -28 0 16 -60c-8,-6 -12,-14 -12,-24 0,-8 2,-14 8,-20 6,-5 13,-8 21,-8zm130 84c28,0 53,9 74,25l-20 29c-18,-11 -35,-17 -52,-17 -9,0 -17,2 -23,6 -5,4 -8,9 -8,15 0,5 1,8 4,12 2,3 6,6 12,8 7,3 16,6 27,9 23,6 39,14 50,24 11,10 16,24 16,41 0,21 -8,37 -25,48 -16,12 -37,18 -62,18 -16,0 -32,-3 -46,-8 -13,-5 -25,-12 -36,-22l25 -28c18,14 37,21 56,21 11,0 20,-3 27,-7 7,-4 10,-10 10,-18 0,-6 -1,-11 -4,-14 -2,-4 -7,-7 -13,-10 -6,-2 -16,-6 -30,-10 -21,-5 -36,-13 -46,-23 -10,-11 -15,-23 -15,-39 0,-11 3,-21 10,-30 7,-10 16,-17 28,-22 12,-5 26,-8 41,-8zm295 0c13,0 25,2 36,6 11,4 21,10 31,18l-23 30c-7,-5 -13,-9 -20,-11 -6,-2 -13,-3 -21,-3 -31,0 -46,23 -46,70 0,24 4,41 12,51 8,11 19,16 34,16 7,0 14,-1 20,-3 6,-3 13,-6 21,-12l23 32c-20,16 -42,24 -67,24 -20,0 -37,-5 -51,-13 -15,-9 -26,-21 -34,-38 -7,-16 -11,-34 -11,-56 0,-22 4,-41 11,-58 8,-17 19,-30 34,-39 14,-9 31,-14 51,-14zm207 0c18,0 32,6 42,17 11,11 16,27 16,46l0 149 -50 0 0 -141c0,-12 -2,-21 -6,-26 -5,-5 -11,-7 -19,-7 -8,0 -16,2 -23,8 -7,5 -14,13 -20,22l0 144 -50 0 0 -288 50 -5 0 112c16,-20 36,-31 60,-31zm262 157c0,8 1,14 4,18 2,4 6,7 12,9l-11 33c-12,-1 -21,-4 -29,-9 -7,-4 -13,-12 -16,-21 -7,10 -16,18 -27,23 -10,5 -22,8 -35,8 -20,0 -36,-6 -48,-18 -12,-12 -18,-27 -18,-46 0,-22 8,-39 24,-51 16,-12 39,-18 69,-18l26 0 0 -11c0,-13 -3,-23 -9,-28 -6,-5 -16,-8 -29,-8 -15,0 -34,4 -55,11l-11 -34c25,-10 50,-15 74,-15 53,0 79,24 79,71l0 86zm-89 24c17,0 30,-8 40,-25l0 -41 -21 0c-32,0 -48,12 -48,35 0,10 3,18 8,23 5,6 12,8 21,8zm261 21c-7,5 -15,9 -24,12 -9,2 -18,4 -27,4 -21,-1 -36,-6 -46,-18 -11,-11 -16,-28 -16,-50l0 -108 -32 0 0 -36 32 0 0 -45 50 -6 0 51 47 0 -5 36 -42 0 0 107c0,10 1,18 5,22 3,4 9,7 16,7 8,0 16,-3 25,-8l17 32zm371 -196l-45 206 -62 0 -31 -161 -32 161 -61 0 -46 -206 50 0 29 169 36 -169 51 0 32 169 31 -169 48 0zm78 0l0 206 -50 0 0 -206 50 0zm-25 -104c9,0 17,3 22,9 6,6 9,13 9,21 0,9 -3,16 -9,22 -5,5 -13,8 -22,8 -9,0 -17,-3 -23,-8 -5,-6 -8,-13 -8,-22 0,-8 3,-15 8,-21 6,-6 14,-9 23,-9zm197 300c-7,5 -16,9 -24,12 -9,2 -19,4 -28,4 -20,-1 -35,-6 -46,-18 -10,-11 -16,-28 -16,-50l0 -108 -32 0 0 -36 32 0 0 -45 50 -6 0 51 48 0 -5 36 -43 0 0 107c0,10 2,18 5,22 4,4 9,7 17,7 7,0 16,-3 24,-8l18 32zm132 -202c18,0 32,6 42,17 11,11 16,27 16,46l0 149 -50 0 0 -141c0,-12 -2,-21 -6,-26 -4,-5 -11,-7 -19,-7 -8,0 -16,2 -23,8 -7,5 -14,13 -20,22l0 144 -50 0 0 -288 50 -5 0 112c16,-20 36,-31 60,-31zm496 -57l-49 269 -67 0 -41 -214 -42 214 -64 0 -49 -269 51 0 34 228 44 -228 54 0 44 228 37 -228 48 0zm140 57c19,0 33,6 43,17 11,11 16,27 16,46l0 149 -50 0 0 -141c0,-12 -2,-21 -6,-26 -5,-5 -11,-7 -19,-7 -9,0 -16,2 -23,8 -7,5 -14,13 -20,22l0 144 -50 0 0 -288 50 -5 0 112c16,-20 36,-31 59,-31zm263 157c0,8 1,14 4,18 2,4 6,7 11,9l-10 33c-12,-1 -21,-4 -29,-9 -7,-4 -13,-12 -17,-21 -7,10 -15,18 -26,23 -10,5 -22,8 -35,8 -20,0 -37,-6 -49,-18 -11,-12 -17,-27 -17,-46 0,-22 8,-39 24,-51 16,-12 39,-18 69,-18l26 0 0 -11c0,-13 -3,-23 -9,-28 -6,-5 -16,-8 -30,-8 -15,0 -33,4 -54,11l-12 -34c26,-10 51,-15 75,-15 53,0 79,24 79,71l0 86zm-89 24c17,0 30,-8 40,-25l0 -41 -21 0c-32,0 -48,12 -48,35 0,10 3,18 7,23 5,6 13,8 22,8zm261 21c-7,5 -15,9 -24,12 -9,2 -18,4 -28,4 -20,-1 -35,-6 -46,-18 -10,-11 -15,-28 -15,-50l0 -108 -33 0 0 -36 33 0 0 -45 49 -6 0 51 48 0 -5 36 -43 0 0 107c0,10 2,18 6,22 3,4 9,7 16,7 8,0 16,-3 25,-8l17 32zm87 -202c28,0 52,9 73,25l-19 29c-18,-11 -35,-17 -52,-17 -10,0 -17,2 -23,6 -5,4 -8,9 -8,15 0,5 1,8 4,12 2,3 6,6 12,8 6,3 15,6 27,9 23,6 39,14 50,24 11,10 16,24 16,41 0,21 -8,37 -25,48 -17,12 -37,18 -62,18 -17,0 -32,-3 -46,-8 -14,-5 -26,-12 -36,-22l25 -28c18,14 37,21 56,21 11,0 20,-3 27,-7 6,-4 10,-10 10,-18 0,-6 -2,-11 -4,-14 -2,-4 -7,-7 -13,-10 -7,-2 -17,-6 -30,-10 -21,-5 -36,-13 -46,-23 -10,-11 -15,-23 -15,-39 0,-11 3,-21 10,-30 7,-10 16,-17 28,-22 12,-5 26,-8 41,-8zm263 157c0,8 1,14 3,18 3,4 7,7 12,9l-10 33c-12,-1 -21,-4 -29,-9 -7,-4 -13,-12 -17,-21 -7,10 -15,18 -26,23 -10,5 -22,8 -35,8 -21,0 -37,-6 -49,-18 -12,-12 -18,-27 -18,-46 0,-22 9,-39 25,-51 16,-12 39,-18 69,-18l26 0 0 -11c0,-13 -3,-23 -9,-28 -6,-5 -16,-8 -30,-8 -15,0 -33,4 -54,11l-12 -34c26,-10 51,-15 75,-15 52,0 79,24 79,71l0 86zm-89 24c17,0 30,-8 40,-25l0 -41 -21 0c-32,0 -48,12 -48,35 0,10 2,18 7,23 5,6 13,8 22,8zm250 -181c26,0 45,10 57,29 13,19 19,45 19,79 0,22 -3,41 -10,57 -6,16 -15,29 -28,39 -12,9 -27,14 -43,14 -22,0 -39,-8 -52,-23l0 96 -50 5 0 -290 44 0 2 25c9,-10 18,-18 28,-23 10,-5 21,-8 33,-8zm-19 180c28,0 43,-24 43,-71 0,-25 -3,-43 -10,-55 -6,-11 -16,-16 -29,-16 -8,0 -16,2 -23,7 -8,5 -14,12 -19,21l0 92c10,14 22,22 38,22zm245 -180c26,0 45,10 57,29 13,19 19,45 19,79 0,22 -3,41 -10,57 -6,16 -15,29 -28,39 -12,9 -27,14 -43,14 -22,0 -39,-8 -52,-23l0 96 -50 5 0 -290 44 0 2 25c8,-10 18,-18 28,-23 10,-5 21,-8 33,-8zm-19 180c28,0 43,-24 43,-71 0,-25 -4,-43 -10,-55 -6,-11 -16,-16 -29,-16 -8,0 -16,2 -23,7 -8,5 -14,12 -19,21l0 92c9,14 22,22 38,22z"/>
   <path class="fil1" d="M790 569c0,0 13,-8 20,-8 6,0 37,0 37,0 0,0 10,2 15,12 5,11 36,85 39,91 2,6 8,20 -2,33 -9,12 -30,36 -30,36 0,0 -8,7 -1,19 7,12 32,51 64,80 33,29 73,50 93,57 20,7 24,-2 32,-12 7,-10 31,-40 31,-40 0,0 8,-12 24,-4 16,7 95,45 95,45 0,0 9,1 10,12 0,11 7,43 -22,73 -28,31 -88,45 -117,37 -28,-8 -123,-33 -184,-90 -62,-58 -112,-118 -132,-163 -20,-44 -19,-71 -18,-83 1,-12 7,-70 46,-95z"/>
  </g>
 </g>
</svg>
